train:
val_loss: 0.1602
Average PSNR: 24.557287506122034 dB
Average MSE: 0.003582920444109935
Mean Absolute Error (MAE): 0.025117819495512252

test:
Loss: 0.1601635366678238
PSNR: 24.521499706067146 dB
MSE: 0.0036149863560091203
MAE: 0.02519274186339601